{
  "indexes": [
    {
      "collectionGroup": "citas",
      "queryScope": "COLLECTION",
      "fields": [
        {
          "fieldPath": "fecha",
          "order": "ASCENDING"
        },
        {
          "fieldPath": "hora",
          "order": "DESCENDING"
        }
      ]
    },
    {
      "collectionGroup": "consultas",
      "queryScope": "COLLECTION",
      "fields": [
        {
          "fieldPath": "dni",
          "order": "ASCENDING"
        },
        {
          "fieldPath": "fecha",
          "order": "DESCENDING"
        }
      ]
    },
    {
      "collectionGroup": "pagos",
      "queryScope": "COLLECTION",
      "fields": [
        {
          "fieldPath": "dniPaciente",
          "order": "ASCENDING"
        },
        {
          "fieldPath": "fecha",
          "order": "DESCENDING"
        }
      ]
    },
    {
      "collectionGroup": "tratamientos",
      "queryScope": "COLLECTION",
      "fields": [
        {
          "fieldPath": "servicios",
          "arrayConfig": "CONTAINS"
        },
        {
          "fieldPath": "fecha",
          "order": "ASCENDING"
        }
      ]
    }
  ],
  "fieldOverrides": [
    {
      "collectionGroup": "consultas",
      "fieldPath": "fecha",
      "indexes": [
        {
          "order": "ASCENDING",
          "queryScope": "COLLECTION"
        },
        {
          "order": "DESCENDING",
          "queryScope": "COLLECTION"
        },
        {
          "arrayConfig": "CONTAINS",
          "queryScope": "COLLECTION"
        }
      ]
    }
  ]
}
